{
  "todos": [
    {
      "id": 1,
      "description": "lorem ipsum",
      "action": true
    },
    {
      "id": 2,
      "description": "lorem ipsum not ",
      "action": true
    },
    {
      "description": "test ipsum",
      "action": false,
      "id": 3
    },
    {
      "description": "test 2 ipsum",
      "action": true,
      "id": 4
    },
    {
      "description": "test 3 ipsum",
      "action": false,
      "id": 5
    },
    {
      "description": "test 4 ipsum",
      "action": true,
      "id": 6
    },
    {
      "description": "Test 5 ipsum",
      "action": true,
      "id": 7
    },
    {
      "description": "Emrah ",
      "action": true,
      "id": 8
    },
    {
      "description": "kemrah",
      "action": true,
      "id": 9
    },
    {
      "description": "nordik",
      "action": false,
      "id": 10
    },
    {
      "description": "fordik",
      "action": false,
      "id": 11
    },
    {
      "description": "fordik",
      "action": false,
      "id": 12
    },
    {
      "description": "nordik AAA",
      "action": false,
      "id": 13
    },
    {
      "description": "aaea",
      "action": false,
      "id": 14
    },
    {
      "description": "deneme ekleme",
      "action": false,
      "id": 15
    }
  ]
}